<svg width="66" height="172" viewBox="0 0 66 172" fill="none" xmlns="http://www.w3.org/2000/svg">
<path fill-rule="evenodd" clip-rule="evenodd" d="M0 0V166.083C0 184.431 33.0024 154.249 33.0024 154.249C33.0024 154.249 66 184.431 66 166.083V0H0Z" fill="#00C4CC"/>
</svg>
