<svg width="115" height="109" viewBox="0 0 115 109" fill="none" xmlns="http://www.w3.org/2000/svg">
<mask id="mask0" mask-type="alpha" maskUnits="userSpaceOnUse" x="0" y="0" width="115" height="66">
<path fill-rule="evenodd" clip-rule="evenodd" d="M0 0.156494H114.559V65.8036H0V0.156494Z" fill="white"/>
</mask>
<g mask="url(#mask0)">
<path fill-rule="evenodd" clip-rule="evenodd" d="M26.9707 31.8997L26.5587 39.5075C26.5228 40.1815 26.9463 40.7938 27.5876 40.9943L36.1488 43.6722C42.9544 45.9095 50.0698 47.0504 57.2303 47.0535C64.4169 47.0455 71.5572 45.907 78.3921 43.6783L86.9727 40.9943C87.614 40.7938 88.0375 40.1815 88.0016 39.5075L87.5933 32.0128C102.232 35.1735 111.625 40.6105 111.625 45.9834C111.625 50.1286 106.038 54.3452 96.2968 57.5517C85.903 60.9733 72.0695 62.858 57.3447 62.858C42.638 62.858 28.7827 60.9501 18.3292 57.4851C8.54328 54.242 2.9308 50.0002 2.9308 45.8471C2.93323 40.5054 12.3468 35.0555 26.9707 31.8997ZM31.2038 7.99735C31.3583 5.14407 33.7867 2.9569 36.6276 3.11274C36.9459 3.12985 37.2604 3.1769 37.5695 3.25268L49.0841 6.07601C54.4697 7.39113 60.0907 7.39113 65.4762 6.07601L76.9908 3.25268C79.7544 2.57435 82.5418 4.27507 83.2166 7.05135C83.2921 7.36179 83.3395 7.67835 83.3566 7.99735L85.0098 38.5223L77.505 40.8702C64.3578 45.1847 50.1848 45.1828 37.0402 40.8653L29.5499 38.5223L31.2038 7.99735ZM17.4117 60.2822C28.1535 63.8425 42.3362 65.8036 57.3465 65.8036C72.3732 65.8036 86.5309 63.867 97.2119 60.3506C108.399 56.6675 114.56 51.5653 114.56 45.9822C114.56 41.2467 110.236 37.7328 106.609 35.6183C101.954 32.9062 95.3275 30.6097 87.429 28.9676L86.2845 7.83724C86.0423 3.35901 82.2309 -0.0729857 77.7727 0.170236C77.2743 0.197736 76.7791 0.27107 76.2941 0.390236L64.7795 3.21418C59.8509 4.41685 54.707 4.41685 49.7778 3.21418L38.265 0.390236C33.9279 -0.673708 29.553 1.99501 28.4937 6.35163C28.3756 6.83929 28.302 7.33613 28.2752 7.83724L27.1368 28.8472C27.068 28.8631 26.9999 28.879 26.9311 28.8961C19.0795 30.5437 12.4746 32.8635 7.82651 35.6055C2.70627 38.6256 -0.000183105 42.1676 -0.000183105 45.8471C-0.000183105 51.4357 6.18304 56.5605 17.4117 60.2822Z" fill="#00C4CC"/>
<path d="M26.5587 39.5075L25.7499 39.4637L25.7499 39.4644L26.5587 39.5075ZM27.5876 40.9943L27.8295 40.2212L27.8293 40.2212L27.5876 40.9943ZM36.1488 43.6722L36.4017 42.9026L36.3906 42.8991L36.1488 43.6722ZM57.2303 47.0535L57.2299 47.8635L57.2312 47.8635L57.2303 47.0535ZM78.3921 43.6783L78.1503 42.9052L78.141 42.9082L78.3921 43.6783ZM86.9727 40.9943L86.731 40.2212L86.7309 40.2212L86.9727 40.9943ZM88.0016 39.5075L88.8104 39.4644L88.8104 39.4634L88.0016 39.5075ZM87.5933 32.0128L87.7643 31.221L86.7268 30.997L86.7845 32.0569L87.5933 32.0128ZM96.2968 57.5517L96.0435 56.7823L96.0435 56.7824L96.2968 57.5517ZM18.3292 57.4851L18.5841 56.7163L18.584 56.7162L18.3292 57.4851ZM2.9308 45.8471L2.1208 45.8468V45.8471H2.9308ZM31.2038 7.99735L32.0126 8.04117V8.04116L31.2038 7.99735ZM36.6276 3.11274L36.5833 3.92152L36.5841 3.92157L36.6276 3.11274ZM37.5695 3.25268L37.7624 2.46598L37.7624 2.46598L37.5695 3.25268ZM49.0841 6.07601L48.8912 6.86271L48.892 6.86289L49.0841 6.07601ZM65.4762 6.07601L65.6683 6.86289L65.6691 6.86271L65.4762 6.07601ZM76.9908 3.25268L77.1837 4.03938L77.1839 4.03933L76.9908 3.25268ZM83.2166 7.05135L84.0037 6.86006L84.0037 6.86004L83.2166 7.05135ZM83.3566 7.99735L82.5477 8.04055L82.5478 8.04115L83.3566 7.99735ZM85.0098 38.5223L85.2516 39.2954L85.8526 39.1074L85.8186 38.4785L85.0098 38.5223ZM77.505 40.8702L77.2631 40.0971L77.2524 40.1006L77.505 40.8702ZM37.0402 40.8653L37.293 40.0957L37.282 40.0923L37.0402 40.8653ZM29.5499 38.5223L28.7411 38.4785L28.7071 39.1074L29.3081 39.2954L29.5499 38.5223ZM97.2119 60.3506L97.4652 61.12L97.4652 61.12L97.2119 60.3506ZM106.609 35.6183L107.017 34.9186L107.017 34.9185L106.609 35.6183ZM87.429 28.9676L86.6202 29.0114L86.6539 29.6338L87.2642 29.7607L87.429 28.9676ZM86.2845 7.83724L85.4757 7.88097V7.88105L86.2845 7.83724ZM77.7727 0.170236L77.7286 -0.638561L77.728 -0.638533L77.7727 0.170236ZM76.2941 0.390236L76.487 1.17692L76.4874 1.17684L76.2941 0.390236ZM64.7795 3.21418L64.9715 4.00109L64.9724 4.00087L64.7795 3.21418ZM49.7778 3.21418L49.5848 4.00086L49.5858 4.0011L49.7778 3.21418ZM38.265 0.390236L38.072 1.17691L38.072 1.17692L38.265 0.390236ZM28.4937 6.35163L27.7066 6.16024L27.7064 6.16106L28.4937 6.35163ZM28.2752 7.83724L29.084 7.88106L29.0841 7.88045L28.2752 7.83724ZM27.1368 28.8472L27.3191 29.6364L27.9126 29.4993L27.9456 28.8911L27.1368 28.8472ZM26.9311 28.8961L27.0975 29.6889L27.1122 29.6858L27.1267 29.6821L26.9311 28.8961ZM7.82651 35.6055L8.23803 36.3032L8.23808 36.3032L7.82651 35.6055ZM26.1618 31.8559L25.7499 39.4637L27.3675 39.5513L27.7795 31.9435L26.1618 31.8559ZM25.7499 39.4644C25.6944 40.5053 26.3486 41.4557 27.346 41.7674L27.8293 40.2212C27.544 40.132 27.3512 39.8577 27.3676 39.5505L25.7499 39.4644ZM27.3458 41.7674L35.9069 44.4452L36.3906 42.8991L27.8295 40.2212L27.3458 41.7674ZM35.8958 44.4417C42.783 46.7057 49.9837 47.8604 57.2299 47.8635L57.2306 46.2435C50.156 46.2404 43.1259 45.1132 36.4017 42.9027L35.8958 44.4417ZM57.2312 47.8635C64.5027 47.8554 71.7275 46.7035 78.6432 44.4484L78.141 42.9082C71.3869 45.1106 64.331 46.2356 57.2294 46.2435L57.2312 47.8635ZM78.6339 44.4514L87.2145 41.7674L86.7309 40.2212L78.1503 42.9052L78.6339 44.4514ZM87.2143 41.7674C88.2117 41.4557 88.8659 40.5053 88.8104 39.4644L87.1927 39.5505C87.2091 39.8577 87.0163 40.132 86.731 40.2212L87.2143 41.7674ZM88.8104 39.4634L88.4021 31.9687L86.7845 32.0569L87.1928 39.5515L88.8104 39.4634ZM87.4224 32.8045C94.6936 34.3745 100.613 36.5004 104.692 38.869C106.732 40.0536 108.28 41.2805 109.309 42.5006C110.337 43.7189 110.815 44.8877 110.815 45.9834H112.435C112.435 44.3927 111.738 42.867 110.547 41.4559C109.358 40.0467 107.643 38.7094 105.505 37.468C101.228 34.9847 95.1315 32.8117 87.7643 31.221L87.4224 32.8045ZM110.815 45.9834C110.815 47.6754 109.666 49.556 107.126 51.473C104.609 53.3726 100.868 55.1941 96.0435 56.7823L96.5501 58.3211C101.466 56.7028 105.39 54.8128 108.102 52.7661C110.79 50.7369 112.435 48.4365 112.435 45.9834H110.815ZM96.0435 56.7824C85.7542 60.1696 72.0112 62.048 57.3447 62.048V63.668C72.1278 63.668 86.0518 61.7771 96.5501 58.3211L96.0435 56.7824ZM57.3447 62.048C42.6975 62.048 28.933 60.1466 18.5841 56.7163L18.0744 58.254C28.6324 61.7536 42.5786 63.668 57.3447 63.668V62.048ZM18.584 56.7162C13.7365 55.1097 9.97796 53.2728 7.44867 51.3612C4.89571 49.4317 3.7408 47.5428 3.7408 45.8471H2.1208C2.1208 48.3046 3.77212 50.6131 6.47189 52.6536C9.19533 54.7119 13.136 56.6174 18.0744 58.254L18.584 56.7162ZM3.7408 45.8475C3.74129 44.7612 4.21905 43.5977 5.24952 42.3818C6.28127 41.1643 7.83183 39.9385 9.874 38.7544C13.9572 36.3869 19.878 34.259 27.1415 32.6915L26.7998 31.108C19.4395 32.6963 13.3416 34.8712 9.06139 37.353C6.92188 38.5935 5.2046 39.929 4.01362 41.3344C2.82137 42.7413 2.12152 44.2622 2.1208 45.8468L3.7408 45.8475ZM32.0126 8.04116C32.1431 5.63142 34.1926 3.79039 36.5833 3.92152L36.672 2.30395C33.3808 2.12342 30.5735 4.65672 30.3949 7.95354L32.0126 8.04116ZM36.5841 3.92157C36.8513 3.93593 37.1158 3.97544 37.3767 4.03938L37.7624 2.46598C37.405 2.37836 37.0404 2.32376 36.6711 2.3039L36.5841 3.92157ZM37.3766 4.03938L48.8912 6.86271L49.277 5.28932L37.7624 2.46598L37.3766 4.03938ZM48.892 6.86289C54.4038 8.20883 60.1566 8.20883 65.6683 6.86289L65.284 5.28914C60.0248 6.57342 54.5356 6.57342 49.2763 5.28914L48.892 6.86289ZM65.6691 6.86271L77.1837 4.03938L76.7979 2.46598L65.2833 5.28932L65.6691 6.86271ZM77.1839 4.03933C79.5094 3.46854 81.8598 4.89877 82.4295 7.24265L84.0037 6.86004C83.2238 3.65137 79.9995 1.68016 76.7977 2.46603L77.1839 4.03933ZM82.4295 7.24264C82.4936 7.50606 82.5334 7.77306 82.5477 8.04055L84.1654 7.95415C84.1456 7.58364 84.0906 7.21752 84.0037 6.86006L82.4295 7.24264ZM82.5478 8.04115L84.201 38.5662L85.8186 38.4785L84.1654 7.95354L82.5478 8.04115ZM84.7679 37.7493L77.2631 40.0972L77.7468 41.6433L85.2516 39.2954L84.7679 37.7493ZM77.2524 40.1006C64.2694 44.3612 50.2735 44.3594 37.2929 40.0958L36.7874 41.6349C50.0962 46.0063 64.4463 46.0082 77.7575 41.6399L77.2524 40.1006ZM37.282 40.0923L29.7918 37.7493L29.3081 39.2954L36.7983 41.6384L37.282 40.0923ZM30.3588 38.5662L32.0126 8.04117L30.3949 7.95353L28.7411 38.4785L30.3588 38.5662ZM17.1568 61.051C28.0027 64.6459 42.2761 66.6136 57.3465 66.6136V64.9936C42.3964 64.9936 28.3043 63.0392 17.6665 59.5133L17.1568 61.051ZM57.3465 66.6136C72.4321 66.6136 86.6802 64.6706 97.4652 61.12L96.9586 59.5812C86.3816 63.0633 72.3142 64.9936 57.3465 64.9936V66.6136ZM97.4652 61.12C103.111 59.2612 107.552 57.0252 110.598 54.5027C113.644 51.9794 115.37 49.1005 115.37 45.9822H113.75C113.75 48.447 112.395 50.9107 109.564 53.2551C106.733 55.6003 102.5 57.7568 96.9586 59.5813L97.4652 61.12ZM115.37 45.9822C115.37 43.3528 114.167 41.1074 112.551 39.2807C110.938 37.4566 108.87 35.9986 107.017 34.9186L106.201 36.3181C107.975 37.3525 109.883 38.7087 111.338 40.354C112.791 41.9968 113.75 43.876 113.75 45.9822H115.37ZM107.017 34.9185C102.259 32.1463 95.5395 29.8264 87.5939 28.1746L87.2642 29.7607C95.1155 31.3929 101.65 33.6662 106.201 36.3182L107.017 34.9185ZM88.2378 28.9238L87.0933 7.79343L85.4757 7.88105L86.6202 29.0114L88.2378 28.9238ZM87.0933 7.7935C86.8272 2.87154 82.6367 -0.90633 77.7286 -0.638561L77.8168 0.979034C81.8251 0.760359 85.2575 3.84648 85.4757 7.88097L87.0933 7.7935ZM77.728 -0.638533C77.1801 -0.608297 76.6351 -0.527643 76.1008 -0.396363L76.4874 1.17684C76.923 1.06978 77.3685 1.00377 77.8173 0.979006L77.728 -0.638533ZM76.1012 -0.39645L64.5866 2.42749L64.9724 4.00087L76.487 1.17692L76.1012 -0.39645ZM64.5875 2.42727C59.7851 3.59915 54.7728 3.59915 49.9698 2.42727L49.5858 4.0011C54.6411 5.23454 59.9168 5.23455 64.9715 4.00109L64.5875 2.42727ZM49.9707 2.4275L38.458 -0.396443L38.072 1.17692L49.5848 4.00086L49.9707 2.4275ZM38.458 -0.396439C33.6829 -1.56782 28.8711 1.3712 27.7066 6.16024L29.2807 6.54301C30.2349 2.61883 34.1728 0.220404 38.072 1.17691L38.458 -0.396439ZM27.7064 6.16106C27.5769 6.69619 27.4958 7.24233 27.4664 7.79402L29.0841 7.88045C29.1081 7.42992 29.1744 6.9824 29.2809 6.54219L27.7064 6.16106ZM27.4664 7.79341L26.328 28.8034L27.9456 28.8911L29.084 7.88106L27.4664 7.79341ZM26.9544 28.058C26.8852 28.074 26.8114 28.0912 26.7355 28.1101L27.1267 29.6821C27.1884 29.6668 27.2508 29.6522 27.3191 29.6364L26.9544 28.058ZM26.7648 28.1034C18.8646 29.7611 12.1664 32.1048 7.41494 34.9079L8.23808 36.3032C12.7828 33.6221 19.2944 31.3262 27.0975 29.6889L26.7648 28.1034ZM7.41499 34.9078C2.20719 37.9796 -0.810183 41.7347 -0.810183 45.8471H0.809817C0.809817 42.6006 3.20535 39.2717 8.23803 36.3032L7.41499 34.9078ZM-0.810183 45.8471C-0.810183 48.9687 0.921478 51.8545 3.97806 54.3884C7.03399 56.9216 11.4906 59.173 17.1568 61.051L17.6665 59.5133C12.1041 57.6697 7.8548 55.4978 5.01195 53.1412C2.16977 50.7851 0.809817 48.3142 0.809817 45.8471H-0.810183Z" fill="#00C7CF"/>
</g>
<path fill-rule="evenodd" clip-rule="evenodd" d="M79.2073 72.9527C87.9644 72.9527 95.0632 80.1373 95.0632 89.0003C95.0638 97.8633 87.9651 105.049 79.2073 105.049C70.4502 105.049 63.3515 97.8639 63.3515 89.0009C63.3611 80.1416 70.4538 72.9625 79.2073 72.9527ZM35.7369 105.048C26.9798 105.048 19.8805 97.8633 19.8805 89.0003C19.8805 80.1373 26.9798 72.9527 35.7369 72.9527C44.4941 72.9527 51.5928 80.1373 51.5928 89.0003C51.5837 97.859 44.4898 105.038 35.7369 105.048ZM79.2073 108C89.5756 108.011 97.9891 99.513 98 89.0199C98.0103 78.5268 89.6137 70.011 79.2454 70C73.779 69.9945 68.5819 72.401 65.011 76.59C62.2182 74.4964 59.823 73.5491 57.3781 73.5491C54.9664 73.5491 52.6044 74.4701 49.8612 76.5031C43.0341 68.6186 31.1841 67.8287 23.3938 74.7389C15.6035 81.6492 14.8237 93.6425 21.6508 101.526C28.4785 109.411 40.3285 110.201 48.1182 103.29C55.0644 97.1291 56.5443 86.7671 51.6067 78.8667C55.9218 75.6599 58.939 75.6911 63.2801 78.9628C57.7955 87.8601 60.4758 99.5717 69.2662 105.123C72.2489 107.006 75.694 108.002 79.2091 108H79.2073Z" fill="#00C4CC"/>
<path d="M95.0632 89.0003H94.2532V89.0004L95.0632 89.0003ZM51.5928 89.0003L52.4028 89.0011V89.0003H51.5928ZM79.2073 108V107.19L79.2065 108.81L79.2073 108ZM98 89.0199L98.81 89.0207V89.0207L98 89.0199ZM79.2454 70L79.2463 69.19L79.2463 69.19L79.2454 70ZM65.011 76.59L64.5252 77.2381L65.1339 77.6945L65.6275 77.1155L65.011 76.59ZM49.8612 76.5031L49.2489 77.0333L49.7403 77.6008L50.3435 77.1538L49.8612 76.5031ZM21.6508 101.526L21.0384 102.057L21.0384 102.057L21.6508 101.526ZM48.1182 103.29L47.5807 102.685L47.5806 102.685L48.1182 103.29ZM51.6067 78.8667L51.1236 78.2166L50.5238 78.6623L50.9198 79.296L51.6067 78.8667ZM63.2801 78.9628L63.9696 79.3879L64.3567 78.7599L63.7676 78.316L63.2801 78.9628ZM69.2662 105.123L68.8337 105.807L68.8338 105.808L69.2662 105.123ZM79.2091 108L79.2097 108.81L79.2091 107.19V108ZM79.2073 73.7627C87.5079 73.7627 94.2532 80.5754 94.2532 89.0003H95.8732C95.8732 79.6992 88.421 72.1427 79.2073 72.1427V73.7627ZM94.2532 89.0004C94.2538 97.4252 87.5085 104.239 79.2073 104.239V105.859C88.4216 105.859 95.8738 98.3014 95.8732 89.0002L94.2532 89.0004ZM79.2073 104.239C70.9067 104.239 64.1615 97.4258 64.1615 89.0009H62.5415C62.5415 98.3021 69.9937 105.859 79.2073 105.859V104.239ZM64.1615 89.0018C64.1707 80.5799 70.9106 73.772 79.2082 73.7627L79.2064 72.1427C69.9971 72.153 62.5516 79.7033 62.5415 89L64.1615 89.0018ZM35.7369 104.238C27.4363 104.238 20.6905 97.4251 20.6905 89.0003H19.0705C19.0705 98.3015 26.5234 105.858 35.7369 105.858V104.238ZM20.6905 89.0003C20.6905 80.5755 27.4363 73.7627 35.7369 73.7627V72.1427C26.5234 72.1427 19.0705 79.6991 19.0705 89.0003H20.6905ZM35.7369 73.7627C44.0376 73.7627 50.7828 80.5754 50.7828 89.0003H52.4028C52.4028 79.6992 44.9506 72.1427 35.7369 72.1427V73.7627ZM50.7828 88.9995C50.7742 97.4206 44.0332 104.229 35.736 104.238L35.7378 105.858C44.9465 105.848 52.3933 98.2974 52.4028 89.0011L50.7828 88.9995ZM79.2065 108.81C90.0313 108.821 98.7986 99.9519 98.81 89.0207L97.19 89.0191C97.1796 99.074 89.12 107.201 79.2082 107.19L79.2065 108.81ZM98.81 89.0207C98.8207 78.0895 90.0711 69.2015 79.2463 69.19L79.2446 70.81C89.1564 70.8205 97.1999 78.9642 97.19 89.0191L98.81 89.0207ZM79.2463 69.19C73.5404 69.1843 68.1183 71.6963 64.3946 76.0645L65.6275 77.1155C69.0455 73.1057 74.0177 70.8047 79.2446 70.81L79.2463 69.19ZM65.4969 75.9419C62.6201 73.7854 60.0573 72.7391 57.3781 72.7391V74.3591C59.5886 74.3591 61.8164 75.2075 64.5252 77.2381L65.4969 75.9419ZM57.3781 72.7391C54.7355 72.7391 52.2073 73.7562 49.3789 75.8523L50.3435 77.1538C53.0015 75.184 55.1973 74.3591 57.3781 74.3591V72.7391ZM50.4736 75.9728C43.352 67.7482 30.985 66.9225 22.8563 74.1329L23.9313 75.3449C31.3832 68.7348 42.7163 69.4889 49.2489 77.0333L50.4736 75.9728ZM22.8563 74.1329C14.7333 81.3384 13.9217 93.8383 21.0384 102.057L22.2631 100.996C15.7256 93.4466 16.4738 81.96 23.9313 75.3449L22.8563 74.1329ZM21.0384 102.057C28.1606 110.281 40.5276 111.107 48.6557 103.896L47.5806 102.685C40.1294 109.295 28.7963 108.54 22.2631 100.996L21.0384 102.057ZM48.6556 103.896C55.8993 97.4714 57.4397 86.6714 52.2936 78.4374L50.9198 79.296C55.649 86.8628 54.2296 96.7869 47.5807 102.685L48.6556 103.896ZM52.0899 79.5168C54.185 77.9598 55.845 77.2816 57.4266 77.2953C59.0107 77.309 60.6807 78.0181 62.7925 79.6097L63.7676 78.316C61.5384 76.6359 59.5292 75.6934 57.4407 75.6753C55.3497 75.6572 53.3435 76.5668 51.1236 78.2166L52.0899 79.5168ZM62.5905 78.5378C56.8751 87.8096 59.6646 100.017 68.8337 105.807L69.6987 104.438C61.287 99.126 58.7159 87.9107 63.9696 79.3879L62.5905 78.5378ZM68.8338 105.808C71.9457 107.772 75.5407 108.813 79.2097 108.81L79.2086 107.19C75.8472 107.192 72.5522 106.239 69.6986 104.438L68.8338 105.808ZM79.2091 107.19H79.2073V108.81H79.2091V107.19Z" fill="#00C7CE"/>
</svg>
