<svg width="20" height="20" viewBox="0 0 20 20" fill="none" xmlns="http://www.w3.org/2000/svg">
<mask id="mask0" mask-type="alpha" maskUnits="userSpaceOnUse" x="0" y="0" width="20" height="20">
<path fill-rule="evenodd" clip-rule="evenodd" d="M0.083313 0.146973H19.5749V19.6399H0.083313V0.146973Z" fill="white"/>
</mask>
<g mask="url(#mask0)">
<path fill-rule="evenodd" clip-rule="evenodd" d="M18.4325 13.3575C18.4325 13.6729 18.1764 13.929 17.8618 13.929H12.1133H7.54485H1.79562C1.48101 13.929 1.22485 13.6729 1.22485 13.3575V1.85981C1.22485 1.54519 1.48101 1.28904 1.79562 1.28904H17.8618C18.1764 1.28904 18.4325 1.54519 18.4325 1.85981V13.3575ZM8.11562 16.2129H11.5418V15.0706H8.11562V16.2129ZM13.2556 17.3552C13.5702 17.3552 13.8264 17.6113 13.8264 17.926V18.4975H5.83101V17.926C5.83101 17.6113 6.08716 17.3552 6.40177 17.3552H13.2556ZM17.8618 0.146729H1.79562C0.851775 0.146729 0.083313 0.91519 0.083313 1.85981V13.3575C0.083313 14.3021 0.851775 15.0706 1.79562 15.0706H6.97408V16.2129H6.40177C5.45793 16.2129 4.68947 16.9813 4.68947 17.926V19.0683C4.68947 19.3837 4.94485 19.6398 5.26024 19.6398H14.3972C14.7125 19.6398 14.9687 19.3837 14.9687 19.0683V17.926C14.9687 16.9813 14.1995 16.2129 13.2556 16.2129H12.6841V15.0706H17.8618C18.8064 15.0706 19.5749 14.3021 19.5749 13.3575V1.85981C19.5749 0.91519 18.8064 0.146729 17.8618 0.146729Z" fill="#0D508F"/>
</g>
<path fill-rule="evenodd" clip-rule="evenodd" d="M14.9688 10.2161C13.4103 9.83613 11.7518 10.1138 10.4003 10.9884V4.79305C11.9541 3.54998 13.5049 3.32844 14.9688 3.77998V10.2161ZM9.25799 10.9884C8.30183 10.37 7.19337 10.05 6.07414 10.05C5.61106 10.05 5.14568 10.1046 4.68952 10.2161V3.77998C6.16568 3.32459 7.71337 3.55767 9.25799 4.79305V10.9884ZM15.7518 2.84613C13.8941 2.10305 11.6788 2.30767 9.82876 3.78767C7.98722 2.31382 5.7726 2.09998 3.90568 2.84613C3.68952 2.93305 3.54645 3.14305 3.54645 3.37613V10.9977C3.54645 11.1869 3.64106 11.3638 3.79876 11.47C3.95491 11.5769 4.15414 11.5977 4.33029 11.5277C5.90106 10.8992 7.69722 11.1654 9.01876 12.2223C9.50414 12.6107 9.52183 12.6369 9.64106 12.6792C9.69568 12.6977 9.76568 12.7107 9.82799 12.7107H9.82876C10.0941 12.71 10.2272 12.5523 10.6395 12.2223C11.9603 11.1654 13.7572 10.8992 15.3272 11.5277C15.5034 11.5977 15.7026 11.5769 15.8595 11.47C16.0164 11.3638 16.1103 11.1869 16.1103 10.9977V3.37613C16.1103 3.14305 15.9688 2.93305 15.7518 2.84613Z" fill="#0D508F"/>
</svg>
