<svg width="15" height="14" viewBox="0 0 15 14" fill="none" xmlns="http://www.w3.org/2000/svg">
<path fill-rule="evenodd" clip-rule="evenodd" d="M7.5 11.25L3.09161 13.5676L3.93354 8.65881L0.367076 5.18237L5.29581 4.46619L7.5 0L9.7042 4.46619L14.6329 5.18237L11.0665 8.65881L11.9084 13.5676L7.5 11.25Z" fill="#EDC553"/>
</svg>
